# Blender v2.79 (sub 0) OBJ File: 'fanStand.blend'
# www.blender.org
mtllib fanStand.mtl
o Cube
v 0.260545 -1.562207 -0.260545
v 0.260545 -1.562207 0.260545
v -0.260545 -1.562207 0.260545
v -0.260545 -1.562207 -0.260545
v 0.055721 0.134291 -0.055721
v 0.055721 0.134291 0.055721
v -0.055721 0.134291 0.055721
v -0.055721 0.134291 -0.055721
v 0.128469 -1.468406 -0.128469
v 0.084289 -1.430778 -0.084289
v 0.065728 -1.405222 -0.065728
v 0.055721 -1.382925 -0.055721
v 0.128469 -1.468406 0.128469
v 0.084289 -1.430778 0.084289
v 0.065728 -1.405222 0.065728
v 0.055721 -1.382925 0.055721
v -0.128469 -1.468406 0.128469
v -0.084289 -1.430778 0.084289
v -0.065728 -1.405222 0.065728
v -0.055721 -1.382925 0.055721
v -0.128469 -1.468406 -0.128469
v -0.084289 -1.430778 -0.084289
v -0.065728 -1.405222 -0.065728
v -0.055721 -1.382925 -0.055721
v 0.055721 -0.059357 -0.055721
v 0.055721 0.056967 -0.055721
v 0.055721 -0.059357 0.055721
v 0.055721 0.056967 0.055721
v -0.055721 -0.059357 0.055721
v -0.055721 0.056967 0.055721
v -0.055721 -0.059357 -0.055721
v -0.055721 0.056967 -0.055721
v 0.089550 -0.057135 -0.146679
v 0.089550 0.054744 -0.146679
v 0.089549 -0.057135 0.146679
v 0.089549 0.054744 0.146679
v -0.089550 -0.057135 0.146679
v -0.089550 0.054744 0.146679
v -0.089550 -0.057135 -0.146679
v -0.089550 0.054744 -0.146679
v 0.086848 -1.562207 -0.260545
v -0.086848 -1.562207 -0.260545
v 0.086848 -1.562207 0.260545
v -0.086848 -1.562207 0.260545
v 0.018574 0.134291 -0.055721
v -0.018574 0.134291 -0.055721
v 0.018574 0.134291 0.055721
v -0.018574 0.134291 0.055721
v 0.018574 -1.382925 -0.055721
v -0.018574 -1.382925 -0.055721
v 0.021909 -1.405222 -0.065728
v -0.021909 -1.405222 -0.065728
v 0.028096 -1.430778 -0.084289
v -0.028096 -1.430778 -0.084289
v 0.042823 -1.468406 -0.128469
v -0.042823 -1.468406 -0.128469
v 0.042823 -1.468406 0.128469
v -0.042823 -1.468406 0.128469
v 0.028096 -1.430778 0.084289
v -0.028096 -1.430778 0.084289
v 0.021909 -1.405222 0.065728
v -0.021909 -1.405222 0.065728
v 0.018574 -1.382925 0.055721
v -0.018574 -1.382925 0.055721
v 0.018574 0.056967 -0.055721
v -0.018574 0.056967 -0.055721
v 0.018574 -0.059357 -0.055721
v -0.018574 -0.059357 -0.055721
v 0.018574 -0.059357 0.055721
v -0.018574 -0.059357 0.055721
v 0.018574 0.056967 0.055721
v -0.018574 0.056967 0.055721
v 0.029850 0.054744 -0.146679
v -0.029850 0.054744 -0.146679
v 0.029850 -0.057135 -0.146679
v -0.029850 -0.057135 -0.146679
v 0.029850 -0.057135 0.146679
v -0.029850 -0.057135 0.146679
v 0.029850 0.054744 0.146679
v -0.029850 0.054744 0.146679
v 0.089550 -0.019842 -0.146679
v 0.089550 0.017451 -0.146679
v 0.089549 -0.019842 0.146679
v 0.089549 0.017451 0.146679
v -0.089550 -0.019842 0.146679
v -0.089550 0.017451 0.146679
v -0.089550 -0.019842 -0.146679
v -0.089550 0.017451 -0.146679
v 0.029850 -0.019842 -0.146679
v 0.029850 0.017451 -0.146679
v -0.029850 -0.019842 -0.146679
v -0.029850 0.017451 -0.146679
vt 0.000000 0.000000
vt 0.000000 0.000000
vt 0.000000 0.000000
vt 0.000000 0.000000
vt 0.000000 0.000000
vt 0.000000 0.000000
vt 0.000000 0.000000
vt 0.000000 0.000000
vt 0.000000 0.000000
vt 0.000000 0.000000
vt 0.000000 0.000000
vt 0.000000 0.000000
vt 0.000000 0.000000
vt 0.000000 0.000000
vt 0.000000 0.000000
vt 0.000000 0.000000
vt 0.000000 0.000000
vt 0.000000 0.000000
vt 0.000000 0.000000
vt 0.000000 0.000000
vt 0.000000 0.000000
vt 0.000000 0.000000
vt 0.000000 0.000000
vt 0.000000 0.000000
vt 0.000000 0.000000
vt 0.000000 0.000000
vt 0.000000 0.000000
vt 0.000000 0.000000
vt 0.000000 0.000000
vt 0.000000 0.000000
vt 0.000000 0.000000
vt 0.000000 0.000000
vt 0.000000 0.000000
vt 0.000000 0.000000
vt 0.000000 0.000000
vt 0.000000 0.000000
vt 0.000000 0.000000
vt 0.000000 0.000000
vt 0.000000 0.000000
vt 0.000000 0.000000
vt 0.000000 0.000000
vt 0.000000 0.000000
vt 0.000000 0.000000
vt 0.000000 0.000000
vt 0.000000 0.000000
vt 0.000000 0.000000
vt 0.000000 0.000000
vt 0.000000 0.000000
vt 0.000000 0.000000
vt 0.000000 0.000000
vt 0.000000 0.000000
vt 0.000000 0.000000
vt 0.000000 0.000000
vt 0.000000 0.000000
vt 0.000000 0.000000
vt 0.000000 0.000000
vt 0.000000 0.000000
vt 0.000000 0.000000
vt 0.000000 0.000000
vt 0.000000 0.000000
vt 0.000000 0.000000
vt 0.000000 0.000000
vt 0.000000 0.000000
vt 0.000000 0.000000
vt 0.000000 0.000000
vt 0.000000 0.000000
vt 0.000000 0.000000
vt 0.000000 0.000000
vt 0.000000 0.000000
vt 0.000000 0.000000
vt 0.000000 0.000000
vt 0.000000 0.000000
vt 0.000000 0.000000
vt 0.000000 0.000000
vt 0.000000 0.000000
vt 0.000000 0.000000
vt 0.000000 0.000000
vt 0.000000 0.000000
vt 0.000000 0.000000
vt 0.000000 0.000000
vt 0.000000 0.000000
vt 0.000000 0.000000
vt 0.000000 0.000000
vt 0.000000 0.000000
vt 0.000000 0.000000
vt 0.000000 0.000000
vt 0.000000 0.000000
vt 0.000000 0.000000
vt 0.000000 0.000000
vt 0.000000 0.000000
vt 0.000000 0.000000
vt 0.000000 0.000000
vn 0.0000 -1.0000 0.0000
vn 0.0000 1.0000 -0.0000
vn 1.0000 0.0000 0.0000
vn -0.0000 0.0000 1.0000
vn -1.0000 0.0000 -0.0000
vn 0.0000 0.8153 -0.5790
vn 0.0000 0.0000 -1.0000
vn 0.0000 0.4095 -0.9123
vn 0.0000 0.5877 -0.8091
vn 0.0000 0.7613 -0.6484
vn -0.5790 0.8153 -0.0000
vn -0.6484 0.7613 0.0000
vn -0.8091 0.5877 -0.0000
vn -0.9123 0.4095 0.0000
vn -0.0000 0.8153 0.5790
vn -0.0000 0.7613 0.6484
vn -0.0000 0.5877 0.8091
vn -0.0000 0.4095 0.9123
vn 0.5790 0.8153 0.0000
vn 0.6484 0.7613 -0.0000
vn 0.8091 0.5877 0.0000
vn 0.9123 0.4095 0.0000
vn 0.0000 0.9997 -0.0244
vn -0.0656 -0.9978 -0.0000
vn -0.0000 -0.9997 0.0244
vn 0.0656 -0.9978 0.0000
vn 0.0656 0.9978 0.0000
vn -0.0000 0.9997 0.0244
vn -0.0656 0.9978 0.0000
vn 0.0000 -0.9997 -0.0244
usemtl Material
s off
f 44/1/1 4/2/1 42/3/1
f 46/4/2 7/5/2 48/6/2
f 5/7/3 28/8/3 26/9/3
f 48/6/4 30/10/4 72/11/4
f 7/5/5 32/12/5 30/10/5
f 42/3/6 21/13/6 56/14/6
f 50/15/7 31/16/7 68/17/7
f 52/18/8 24/19/8 50/15/8
f 54/20/9 23/21/9 52/18/9
f 56/14/10 22/22/10 54/20/10
f 17/23/11 4/2/11 3/24/11
f 18/25/12 21/13/12 17/23/12
f 19/26/13 22/22/13 18/25/13
f 20/27/14 23/21/14 19/26/14
f 44/1/15 17/23/15 3/24/15
f 58/28/16 18/25/16 17/23/16
f 60/29/17 19/26/17 18/25/17
f 62/30/18 20/27/18 19/26/18
f 1/31/19 13/32/19 2/33/19
f 10/34/20 13/32/20 9/35/20
f 10/34/21 15/36/21 14/37/21
f 11/38/22 16/39/22 15/36/22
f 66/40/7 8/41/7 46/4/7
f 26/9/23 73/42/23 65/43/23
f 29/44/5 24/19/5 20/27/5
f 31/16/24 37/45/24 39/46/24
f 70/47/4 20/27/4 64/48/4
f 27/49/25 77/50/25 69/51/25
f 25/52/3 16/39/3 12/53/3
f 25/52/26 35/54/26 27/49/26
f 76/55/7 87/56/7 91/57/7
f 38/58/5 88/59/5 86/60/5
f 34/61/3 84/62/3 82/63/3
f 26/9/27 36/64/27 34/61/27
f 30/10/28 80/65/28 72/11/28
f 32/12/29 38/58/29 30/10/29
f 31/16/30 76/55/30 68/17/30
f 25/52/30 75/66/30 33/67/30
f 68/17/30 75/66/30 67/68/30
f 28/8/28 79/69/28 36/64/28
f 71/70/28 80/65/28 79/69/28
f 33/67/7 89/71/7 81/72/7
f 75/66/7 91/57/7 89/71/7
f 29/44/25 78/73/25 37/45/25
f 69/51/25 78/73/25 70/47/25
f 27/49/4 63/74/4 16/39/4
f 63/74/4 70/47/4 64/48/4
f 32/12/23 74/75/23 40/76/23
f 66/40/23 73/42/23 74/75/23
f 26/9/7 45/77/7 5/7/7
f 65/43/7 46/4/7 45/77/7
f 16/39/18 61/78/18 15/36/18
f 63/74/18 62/30/18 61/78/18
f 15/36/17 59/79/17 14/37/17
f 61/78/17 60/29/17 59/79/17
f 14/37/16 57/80/16 13/32/16
f 59/79/16 58/28/16 57/80/16
f 13/32/15 43/81/15 2/33/15
f 57/80/15 44/1/15 43/81/15
f 10/34/10 55/82/10 53/83/10
f 55/82/10 54/20/10 53/83/10
f 11/38/9 53/83/9 51/84/9
f 53/83/9 52/18/9 51/84/9
f 12/53/8 51/84/8 49/85/8
f 51/84/8 50/15/8 49/85/8
f 12/53/7 67/68/7 25/52/7
f 49/85/7 68/17/7 67/68/7
f 9/35/6 41/86/6 55/82/6
f 41/86/6 56/14/6 55/82/6
f 6/87/4 71/70/4 28/8/4
f 47/88/4 72/11/4 71/70/4
f 45/77/2 6/87/2 5/7/2
f 46/4/2 47/88/2 45/77/2
f 2/33/1 41/86/1 1/31/1
f 43/81/1 42/3/1 41/86/1
f 90/89/7 74/75/7 73/42/7
f 89/71/7 92/90/7 90/89/7
f 82/63/7 73/42/7 34/61/7
f 81/72/7 90/89/7 82/63/7
f 81/72/3 35/54/3 33/67/3
f 82/63/3 83/91/3 81/72/3
f 85/92/5 39/46/5 37/45/5
f 86/60/5 87/56/5 85/92/5
f 92/90/7 40/76/7 74/75/7
f 91/57/7 88/59/7 92/90/7
f 44/1/1 3/24/1 4/2/1
f 46/4/2 8/41/2 7/5/2
f 5/7/3 6/87/3 28/8/3
f 48/6/4 7/5/4 30/10/4
f 7/5/5 8/41/5 32/12/5
f 42/3/6 4/2/6 21/13/6
f 50/15/7 24/19/7 31/16/7
f 52/18/8 23/21/8 24/19/8
f 54/20/9 22/22/9 23/21/9
f 56/14/10 21/13/10 22/22/10
f 17/23/11 21/13/11 4/2/11
f 18/25/12 22/22/12 21/13/12
f 19/26/13 23/21/13 22/22/13
f 20/27/14 24/19/14 23/21/14
f 44/1/15 58/28/15 17/23/15
f 58/28/16 60/29/16 18/25/16
f 60/29/17 62/30/17 19/26/17
f 62/30/18 64/48/18 20/27/18
f 1/31/19 9/35/19 13/32/19
f 10/34/20 14/37/20 13/32/20
f 10/34/21 11/38/21 15/36/21
f 11/38/22 12/53/22 16/39/22
f 66/40/7 32/12/7 8/41/7
f 26/9/23 34/61/23 73/42/23
f 29/44/5 31/16/5 24/19/5
f 31/16/24 29/44/24 37/45/24
f 70/47/4 29/44/4 20/27/4
f 27/49/25 35/54/25 77/50/25
f 25/52/3 27/49/3 16/39/3
f 25/52/26 33/67/26 35/54/26
f 76/55/7 39/46/7 87/56/7
f 38/58/5 40/76/5 88/59/5
f 34/61/3 36/64/3 84/62/3
f 26/9/27 28/8/27 36/64/27
f 30/10/28 38/58/28 80/65/28
f 32/12/29 40/76/29 38/58/29
f 31/16/30 39/46/30 76/55/30
f 25/52/30 67/68/30 75/66/30
f 68/17/30 76/55/30 75/66/30
f 28/8/28 71/70/28 79/69/28
f 71/70/28 72/11/28 80/65/28
f 33/67/7 75/66/7 89/71/7
f 75/66/7 76/55/7 91/57/7
f 29/44/25 70/47/25 78/73/25
f 69/51/25 77/50/25 78/73/25
f 27/49/4 69/51/4 63/74/4
f 63/74/4 69/51/4 70/47/4
f 32/12/23 66/40/23 74/75/23
f 66/40/23 65/43/23 73/42/23
f 26/9/7 65/43/7 45/77/7
f 65/43/7 66/40/7 46/4/7
f 16/39/18 63/74/18 61/78/18
f 63/74/18 64/48/18 62/30/18
f 15/36/17 61/78/17 59/79/17
f 61/78/17 62/30/17 60/29/17
f 14/37/16 59/79/16 57/80/16
f 59/79/16 60/29/16 58/28/16
f 13/32/15 57/80/15 43/81/15
f 57/80/15 58/28/15 44/1/15
f 10/34/10 9/35/10 55/82/10
f 55/82/10 56/14/10 54/20/10
f 11/38/9 10/34/9 53/83/9
f 53/83/9 54/20/9 52/18/9
f 12/53/8 11/38/8 51/84/8
f 51/84/8 52/18/8 50/15/8
f 12/53/7 49/85/7 67/68/7
f 49/85/7 50/15/7 68/17/7
f 9/35/6 1/31/6 41/86/6
f 41/86/6 42/3/6 56/14/6
f 6/87/4 47/88/4 71/70/4
f 47/88/4 48/6/4 72/11/4
f 45/77/2 47/88/2 6/87/2
f 46/4/2 48/6/2 47/88/2
f 2/33/1 43/81/1 41/86/1
f 43/81/1 44/1/1 42/3/1
f 90/89/7 92/90/7 74/75/7
f 89/71/7 91/57/7 92/90/7
f 82/63/7 90/89/7 73/42/7
f 81/72/7 89/71/7 90/89/7
f 81/72/3 83/91/3 35/54/3
f 82/63/3 84/62/3 83/91/3
f 85/92/5 87/56/5 39/46/5
f 86/60/5 88/59/5 87/56/5
f 92/90/7 88/59/7 40/76/7
f 91/57/7 87/56/7 88/59/7
